{
    "А": {
        "Ректальная температура": {
            "<=29.9": 4,
            "30-31.9": 3,
            "32-33.9": 2,
            "34": 1,
            "36-38.4": 0,
            "38.5-38.9": 1,
            "39-40.9": 3,
            ">=41": 4
        },
        "Среднее АД": {
            "<=49": 4,
            "50-69": 2,
            "70-109": 0,
            "110-129": 2,
            "130-159": 3,
            ">=160": 4
        },
        "Частота сердечных сокращений": {
            "<=39": 4,
            "40-54": 3,
            "55-69": 2,
            "70-109": 0,
            "110-139": 2,
            "140-179": 3,
            ">=180": 4
        },
        "Частота дыхательных движений": {
            "<=5": 4,
            "6-9": 2,
            "10-11": 1,
            "12-24": 0,
            "25-34": 1,
            "35-49": 3,
            ">=50": 4
        },
        "Артериально-альвеолярный градиент": {
            "<200": 0,
            "300-349": 2,
            "350-499": 3,
            ">=500": 4
        },
        "Парциальное давление О2 в крови": {
            "<55": 4,
            "55-60": 3,
            "61-70": 1,
            ">70": 0
        },
        "рН артериальной крови": {
            "<7.15": 4,
            "7.15-7.24": 3,
            "7.25-7.32": 2,
            "7.33-7.49": 0,
            "7.5-7.59": 1,
            "7.6-7.69": 3,
            ">=7.7": 4
        },
        "HCO3 в сыворотке": {
            "<15": 4,
            "15-17.9": 3,
            "18-21.9": 2,
            "22-31.9": 0,
            "32-40.9": 1,
            "41-51.9": 3,
            ">=52": 4
        },
        "Na": {
            "<=110": 4,
            "111-119": 3,
            "120-129": 2,
            "130-149": 0,
            "150-154": 1,
            "155-159": 2,
            "160-179": 3,
            ">=180": 4
        },
        "К": {
            "<=2.5": 4,
            "2.5-2.9": 2,
            "3-3.4": 1,
            "3.5-5.4": 0,
            "5.5-5.9": 1,
            "6-6.9": 3,
            ">=7": 4
        },
        "Креатинин сыворотки": {
            "<53": 2,
            "53-132": 0,
            "133-176": 2,
            "177-308": 3,
            ">=309": 4
        },
        "Гематокрит": {
            "<20": 4,
            "20-29.9": 2,
            "30-45.9": 0,
            "46-49.9": 1,
            "50-59.9": 2,
            ">=60": 4
        },
        "Лейкоциты": {
            "<1": 4,
            "1-2.9": 2,
            "3-14.9": 0,
            "15-19.9": 1,
            "20-39.9": 2,
            ">=40": 4
        }
    },
    "B": {
        "Оценка возраста": {
            "<=44": 0,
            "45-54": 2,
            "55-64": 3,
            "65-74": 5,
            ">=75": 6
        }
    },
    "C": {
        "Оценка сопутствующих заболеваний": {
            "неоперированные/ экстренные": 5,
            "планово оперированные": 2,
            "отсутствие патологии": 0
        }
    }
}